^C:\USERS\PAUL\SOURCE\REPOS\OPENGL_SB7\OPENGL_VS\DEBUG\TEST.OBJ
C:\USERS\PAUL\SOURCE\REPOS\OPENGL_SB7\OPENGL_VS\DEBUG\OPENGL_VS.ILK
C:\USERS\PAUL\SOURCE\REPOS\OPENGL_SB7\OPENGL_VS\DEBUG\OPENGL_VS.EXE
C:\USERS\PAUL\SOURCE\REPOS\OPENGL_SB7\OPENGL_VS\DEBUG\OPENGL_VS.PDB
